{
    "id": 2322797,
    "url": "http://patchwork.server/api/patches/2322797/",
    "web_url": "http://patchwork.server/patch/2322797/",
    "project": {
        "id": 30,
        "url": "http://patchwork.server/api/projects/30/",
        "name": "RHEL",
        "link_name": "rhel",
        "list_id": "list.redhat.com",
        "list_email": "email@redhat.com",
        "web_url": "",
        "scm_url": "",
        "webscm_url": ""
    },
    "msgid": "<e41888bcd8ecf2e9bc8cc37c56386e01a5b43c56.1590992822.some-one@redhat.com>",
    "date": "2020-06-01T06:27:02",
    "name": "[RHEL] fix something somewhere",
    "commit_ref": null,
    "pull_url": null,
    "state": "new",
    "archived": false,
    "hash": "d04f236bd36fdce9eed6230675c01561d05a26e6",
    "submitter": {
        "id": 44,
        "url": "http://patchwork.server/api/people/44/",
        "name": "Some One",
        "email": "some-one@redhat.com"
    },
    "delegate": null,
    "mbox": "http://patchwork.server/patch/2322797/mbox/",
    "series": [
        {
            "id": 58545,
            "url": "http://patchwork.server/api/series/58545/",
            "date": "2020-06-01T06:27:02",
            "name": "[RHEL] fix something somewhere",
            "version": 1,
            "mbox": "http://patchwork.server/series/58545/mbox/"
        }
    ],
    "comments": "http://patchwork.server/api/patches/2322797/comments/",
    "check": "pending",
    "checks": "http://patchwork.server/api/patches/2322797/checks/",
    "tags": {},
    "headers": {},
    "content": "",
    "diff": "",
    "prefixes": ["RHEL"]
}
